    [
        {
            "name": "Egyptian Hieroglyphs",
            "first": "13000",
            "last": "1342F"
        },
        {
            "name": "Egyptian Hieroglyphs Extended-A",
            "first": "13460",
            "last": "143FF"
        }
    ]