[
    [
        {
            "name": "Unicode - Wikipedia",
            "href": "https://en.wikipedia.org/wiki/Unicode"
        },
        {
            "name": "Plane (Unicode) - Wikipedia",
            "href": "https://en.wikipedia.org/wiki/Plane_(Unicode)"
        },
        {
            "name": "Unicode input - Wikipedia",
            "href": "https://en.wikipedia.org/wiki/Unicode_input"
        },
        {
            "name": "Combining character - Wikipedia",
            "href": "https://en.wikipedia.org/wiki/Combining_character"
        },
        {
            "name": "Combining Grapheme Joiner - Wikipedia",
            "href": "https://en.wikipedia.org/wiki/Combining_Grapheme_Joiner"
        },
        {
            "name": "Zero-width non-joiner - Wikipedia",
            "href": "https://en.wikipedia.org/wiki/Zero-width_non-joiner"
        },
        {
            "name": "Zero-width joiner - Wikipedia",
            "href": "https://en.wikipedia.org/wiki/Zero-width_joiner"
        },
        {
            "name": "Regional Indicator Symbol - Wikipedia",
            "href": "https://en.wikipedia.org/wiki/Regional_Indicator_Symbol"
        },
        {
            "name": "Variant form (Unicode) - Wikipedia",
            "href": "https://en.wikipedia.org/wiki/Variant_form_(Unicode)"
        }
    ],
    [
        {
            "name": "Letter (alphabet) - Wikipedia",
            "href": "https://en.wikipedia.org/wiki/Letter_(alphabet)"
        },
        {
            "name": "Symbol - Wikipedia",
            "href": "https://en.wikipedia.org/wiki/Symbol"
        },
        {
            "name": "Character (symbol) - Wikipedia",
            "href": "https://en.wikipedia.org/wiki/Character_(symbol)"
        },
        {
            "name": "Character (computing) - Wikipedia",
            "href": "https://en.wikipedia.org/wiki/Character_(computing)"
        },
        {
            "name": "Glyph - Wikipedia",
            "href": "https://en.wikipedia.org/wiki/Glyph"
        },
        {
            "name": "Grapheme - Wikipedia",
            "href": "https://en.wikipedia.org/wiki/Grapheme"
        },
        {
            "name": "Logogram - Wikipedia",
            "href": "https://en.wikipedia.org/wiki/Logogram"
        },
        {
            "name": "Allography - Wikipedia",
            "href": "https://en.wikipedia.org/wiki/Allography"
        }
    ],
    [
        {
            "name": "Alphabet - Wikipedia",
            "href": "https://en.wikipedia.org/wiki/Alphabet"
        },
        {
            "name": "Syllabary - Wikipedia",
            "href": "https://en.wikipedia.org/wiki/Syllabary"
        },
        {
            "name": "Abugida - Wikipedia",
            "href": "https://en.wikipedia.org/wiki/Abugida"
        }
    ],
    [
        {
            "name": "Diacritic - Wikipedia",
            "href": "https://en.wikipedia.org/wiki/Diacritic"
        },
        {
            "name": "Virama - Wikipedia",
            "href": "https://en.wikipedia.org/wiki/Virama"
        }
    ],
    [
        {
            "name": "Unicode font - Wikipedia",
            "href": "https://en.wikipedia.org/wiki/Unicode_font"
        },
        {
            "name": "Open-source Unicode typefaces - Wikipedia",
            "href": "https://en.wikipedia.org/wiki/Open-source_Unicode_typefaces"
        }
    ],
    [
        {
            "name": "Zalgo text - Wikipedia",
            "href": "https://en.wikipedia.org/wiki/Zalgo_text"
        }
    ],
    [
        {
            "name": "Unicode/Versions - Wikibooks, open books for an open world",
            "href": "https://en.wikibooks.org/wiki/Unicode/Versions"
        },
        {
            "name": "History of Unicode Release and Publication Dates",
            "href": "https://www.unicode.org/history/publicationdates.html"
        }
    ],
    [
        {
            "name": "About Versions of the Unicode® Standard",
            "href": "https://www.unicode.org/versions/"
        }
    ],
    [
        {
            "name": "Enumerated Versions of The Unicode® Standard",
            "href": "https://www.unicode.org/versions/enumeratedversions.html"
        }
    ],
    [
        {
            "name": "Updates and Errata",
            "href": "https://www.unicode.org/errata/"
        }
    ],
    [
        {
            "name": "Roadmaps to Unicode",
            "href": "https://www.unicode.org/roadmaps/"
        }
    ],
    [
        {
            "name": "Proposed New Characters: The Pipeline",
            "href": "https://www.unicode.org/alloc/Pipeline.html"
        }
    ],
    [
        {
            "name": "Technical Reports",
            "href": "https://www.unicode.org/reports/"
        }
    ],
    [
        {
            "name": "UAX #41: Common References for UAXs",
            "href": "https://www.unicode.org/reports/tr41/"
        }
    ],
    [
        {
            "name": "Unicode 16.0.0",
            "href": "https://www.unicode.org/versions/Unicode16.0.0/"
        }
    ],
    [
        {
            "name": "The Unicode Standard, Version 16.0 - Core Specification",
            "href": "https://www.unicode.org/versions/Unicode16.0.0/core-spec/"
        }
    ],
    [
        {
            "name": "The Unicode Standard, Version 16.0 - Preface",
            "href": "https://www.unicode.org/versions/Unicode16.0.0/core-spec/preface/"
        },
        {
            "name": "The Unicode Standard, Version 16.0 - Chapter 1 - Introduction",
            "href": "https://www.unicode.org/versions/Unicode16.0.0/core-spec/chapter-1/"
        },
        {
            "name": "The Unicode Standard, Version 16.0 - Chapter 2 - General Structure",
            "href": "https://www.unicode.org/versions/Unicode16.0.0/core-spec/chapter-2/"
        },
        {
            "name": "The Unicode Standard, Version 16.0 - Chapter 3 - Conformance",
            "href": "https://www.unicode.org/versions/Unicode16.0.0/core-spec/chapter-3/"
        },
        {
            "name": "The Unicode Standard, Version 16.0 - Chapter 4 - Character Properties",
            "href": "https://www.unicode.org/versions/Unicode16.0.0/core-spec/chapter-4/"
        },
        {
            "name": "The Unicode Standard, Version 16.0 - Chapter 5 - Implementation Guidelines",
            "href": "https://www.unicode.org/versions/Unicode16.0.0/core-spec/chapter-5/"
        },
        {
            "name": "The Unicode Standard, Version 16.0 - Chapter 6 - Writing Systems and Punctuation",
            "href": "https://www.unicode.org/versions/Unicode16.0.0/core-spec/chapter-6/"
        },
        {
            "name": "The Unicode Standard, Version 16.0 - Chapter 7 - Europe-I - Modern and Liturgical Scripts",
            "href": "https://www.unicode.org/versions/Unicode16.0.0/core-spec/chapter-7/"
        },
        {
            "name": "The Unicode Standard, Version 16.0 - Chapter 8 - Europe-II - Ancient and Other Scripts",
            "href": "https://www.unicode.org/versions/Unicode16.0.0/core-spec/chapter-8/"
        },
        {
            "name": "The Unicode Standard, Version 16.0 - Chapter 9 - Middle East-I - Modern and Liturgical Scripts",
            "href": "https://www.unicode.org/versions/Unicode16.0.0/core-spec/chapter-9/"
        },
        {
            "name": "The Unicode Standard, Version 16.0 - Chapter 10 - Middle East-II - Ancient Scripts",
            "href": "https://www.unicode.org/versions/Unicode16.0.0/core-spec/chapter-10/"
        },
        {
            "name": "The Unicode Standard, Version 16.0 - Chapter 11 - Cuneiform and Hieroglyphs",
            "href": "https://www.unicode.org/versions/Unicode16.0.0/core-spec/chapter-11/"
        },
        {
            "name": "The Unicode Standard, Version 16.0 - Chapter 12 - South and Central Asia-I - Official Scripts of India",
            "href": "https://www.unicode.org/versions/Unicode16.0.0/core-spec/chapter-12/"
        },
        {
            "name": "The Unicode Standard, Version 16.0 - Chapter 13 - South and Central Asia-II - Other Modern Scripts",
            "href": "https://www.unicode.org/versions/Unicode16.0.0/core-spec/chapter-13/"
        },
        {
            "name": "The Unicode Standard, Version 16.0 - Chapter 14 - South and Central Asia-III - Ancient Scripts",
            "href": "https://www.unicode.org/versions/Unicode16.0.0/core-spec/chapter-14/"
        },
        {
            "name": "The Unicode Standard, Version 16.0 - Chapter 15 - South and Central Asia-IV - Other Historic Scripts",
            "href": "https://www.unicode.org/versions/Unicode16.0.0/core-spec/chapter-15/"
        },
        {
            "name": "The Unicode Standard, Version 16.0 - Chapter 16 - Southeast Asia-I - Thailand, Laos, Myanmar, Cambodia, Vietnam",
            "href": "https://www.unicode.org/versions/Unicode16.0.0/core-spec/chapter-16/"
        },
        {
            "name": "The Unicode Standard, Version 16.0 - Chapter 17 - Southeast Asia-II - Indonesia and the Philippines",
            "href": "https://www.unicode.org/versions/Unicode16.0.0/core-spec/chapter-17/"
        },
        {
            "name": "The Unicode Standard, Version 16.0 - Chapter 18 - East Asia",
            "href": "https://www.unicode.org/versions/Unicode16.0.0/core-spec/chapter-18/"
        },
        {
            "name": "The Unicode Standard, Version 16.0 - Chapter 19 - Africa",
            "href": "https://www.unicode.org/versions/Unicode16.0.0/core-spec/chapter-19/"
        },
        {
            "name": "The Unicode Standard, Version 16.0 - Chapter 20 - Americas",
            "href": "https://www.unicode.org/versions/Unicode16.0.0/core-spec/chapter-20/"
        },
        {
            "name": "The Unicode Standard, Version 16.0 - Chapter 21 - Notational Systems",
            "href": "https://www.unicode.org/versions/Unicode16.0.0/core-spec/chapter-21/"
        },
        {
            "name": "The Unicode Standard, Version 16.0 - Chapter 22 - Symbols",
            "href": "https://www.unicode.org/versions/Unicode16.0.0/core-spec/chapter-22/"
        },
        {
            "name": "The Unicode Standard, Version 16.0 - Chapter 23 - Special Areas and Format Characters",
            "href": "https://www.unicode.org/versions/Unicode16.0.0/core-spec/chapter-23/"
        },
        {
            "name": "The Unicode Standard, Version 16.0 - Chapter 24 - About the Code Charts",
            "href": "https://www.unicode.org/versions/Unicode16.0.0/core-spec/chapter-24/"
        }
    ],
    [
        {
            "name": "The Unicode Standard, Version 16.0 - Appendix A - Notational Conventions",
            "href": "https://www.unicode.org/versions/Unicode16.0.0/core-spec/appendix-a/"
        },
        {
            "name": "The Unicode Standard, Version 16.0 - Appendix B - Unicode Publications and Resources",
            "href": "https://www.unicode.org/versions/Unicode16.0.0/core-spec/appendix-b/"
        },
        {
            "name": "The Unicode Standard, Version 16.0 - Appendix C - Relationship to ISO/IEC 10646",
            "href": "https://www.unicode.org/versions/Unicode16.0.0/core-spec/appendix-c/"
        },
        {
            "name": "The Unicode Standard, Version 16.0 - Appendix D - Version History of the Standard",
            "href": "https://www.unicode.org/versions/Unicode16.0.0/core-spec/appendix-d/"
        },
        {
            "name": "The Unicode Standard, Version 16.0 - Appendix E - Han Unification History",
            "href": "https://www.unicode.org/versions/Unicode16.0.0/core-spec/appendix-e/"
        },
        {
            "name": "The Unicode Standard, Version 16.0 - Appendix F - Documentation of CJK Strokes",
            "href": "https://www.unicode.org/versions/Unicode16.0.0/core-spec/appendix-f/"
        }
    ],
    [
        {
            "name": "Unicode 16.0 Versioned Charts Index",
            "href": "https://www.unicode.org/charts/PDF/Unicode-16.0/"
        }
    ],
    [
        {
            "name": "Code Charts",
            "href": "https://www.unicode.org/charts/"
        },
        {
            "name": "Script Charts",
            "href": "https://www.unicode.org/charts/script/"
        }
    ],
    [
        {
            "name": "UTR#17: Unicode Character Encoding Model",
            "href": "https://www.unicode.org/reports/tr17/"
        }
    ],
    [
         {
            "name": "UAX #34: Unicode Named Character Sequences",
            "href": "https://www.unicode.org/reports/tr34/"
        },
        {
            "name": "NamedSequences.txt",
            "href": "https://www.unicode.org/Public/16.0.0/ucd/NamedSequences.txt"
        }
    ],
    [
        {
            "name": "FAQ - Unicode Frequently Asked Questions",
            "href": "https://www.unicode.org/faq/"
        },
        {
            "name": "FAQ - Korean",
            "href": "https://www.unicode.org/faq/korean.html"
        },
        {
            "name": "FAQ - Variation Sequences",
            "href": "https://www.unicode.org/faq/vs.html"
        },
        {
            "name": "FAQ - Characters and Combining Marks",
            "href": "https://www.unicode.org/faq/char_combmark.html"
        }
    ],
    [
        {
            "name": "Glossary",
            "href": "https://www.unicode.org/glossary/"
        }
    ],
    [
        {
            "name": "Number Format Tester",
            "href": "https://st.unicode.org/cldr-apps/numbers.jsp"
        }
    ],
    [
        {
            "name": "An Introduction to Writing Systems & Unicode",
            "href": "https://r12a.github.io/scripts/tutorial/"
        }
    ],
    [
        {
            "name": "ScriptSource - Writing systems, computers and people",
            "href": "https://www.scriptsource.org/"
        }
    ],
    [
        {
            "name": "What every JavaScript developer should know about Unicode",
            "href": "https://dmitripavlutin.com/what-every-javascript-developer-should-know-about-unicode/"
        }
    ],
    [
        {
            "name": "String.prototype.charCodeAt() - JavaScript | MDN",
            "href": "https://developer.mozilla.org/en-US/docs/Web/JavaScript/Reference/Global_Objects/String/charCodeAt"
        },
        {
            "name": "String.fromCharCode() - JavaScript | MDN",
            "href": "https://developer.mozilla.org/en-US/docs/Web/JavaScript/Reference/Global_Objects/String/fromCharCode"
        }
    ],
    [
        {
            "name": "String.prototype.codePointAt() - JavaScript | MDN",
            "href": "https://developer.mozilla.org/en-US/docs/Web/JavaScript/Reference/Global_Objects/String/codePointAt"
        },
        {
            "name": "String.fromCodePoint() - JavaScript | MDN",
            "href": "https://developer.mozilla.org/en-US/docs/Web/JavaScript/Reference/Global_Objects/String/fromCodePoint"
        }
    ],
    [
        {
            "name": "JavaScript character escape sequences · Mathias Bynens",
            "href": "https://mathiasbynens.be/notes/javascript-escapes"
        },
        {
            "name": "JavaScript’s internal character encoding: UCS-2 or UTF-16? · Mathias Bynens",
            "href": "https://mathiasbynens.be/notes/javascript-encoding"
        },
        {
            "name": "JavaScript has a Unicode problem · Mathias Bynens",
            "href": "https://mathiasbynens.be/notes/javascript-unicode"
        }
    ],
    [
        {
            "name": "Valid JavaScript variable names in ES5 · Mathias Bynens",
            "href": "https://mathiasbynens.be/notes/javascript-identifiers"
        },
        {
            "name": "Valid JavaScript variable names in ES2015 · Mathias Bynens",
            "href": "https://mathiasbynens.be/notes/javascript-identifiers-es6"
        }
    ],
    [
        {
            "name": "It’s not wrong that \"🤦🏼‍♂️\".length == 7",
            "href": "https://hsivonen.fi/string-length/"
        }
    ],
    [
        {
            "name": "Dark corners of Unicode / fuzzy notepad",
            "href": "https://eev.ee/blog/2015/09/12/dark-corners-of-unicode/"
        }
    ],
    [
        {
            "name": "I Can Text You A Pile of Poo, But I Can’t Write My Name by Aditya Mukerjee | Model View Culture",
            "href": "https://modelviewculture.com/pieces/i-can-text-you-a-pile-of-poo-but-i-cant-write-my-name"
        }
    ]
]